-------------------------------------------------------------------------------
Test set: com.excel.excel.reader.ExcelReaderApplicationTests
-------------------------------------------------------------------------------
Tests run: 1, Failures: 0, Errors: 0, Skipped: 0, Time elapsed: 4.084 s - in com.excel.excel.reader.ExcelReaderApplicationTests
