com\excel\excel\reader\Entity\Product.class
com\excel\excel\reader\DTO\ProductDto.class
com\excel\excel\reader\DTO\UserDto.class
com\excel\excel\reader\Controller\UserController.class
com\excel\excel\reader\Entity\User.class
com\excel\excel\reader\Service\IMPL\UserserviceIMPL.class
com\excel\excel\reader\ExcelReaderApplication.class
com\excel\excel\reader\Service\IMPL\ProductserviceIMPL.class
com\excel\excel\reader\Service\Productservice.class
com\excel\excel\reader\Repo\ProductRepository.class
com\excel\excel\reader\ServletInitializer.class
com\excel\excel\reader\Controller\ProductController.class
com\excel\excel\reader\Repo\UserRepository.class
com\excel\excel\reader\Service\UserService.class
